[gd_scene load_steps=5 format=2]

[ext_resource path="res://Game.gd" type="Script" id=1]
[ext_resource path="res://assets/theme/theme.tres" type="Theme" id=2]
[ext_resource path="res://assets/theme/ZillaSlab-Medium.ttf" type="DynamicFontData" id=3]

[sub_resource type="DynamicFont" id=1]
size = 32
font_data = ExtResource( 3 )

[node name="Game" type="Control"]
anchor_right = 1.0
anchor_bottom = 1.0
theme = ExtResource( 2 )
script = ExtResource( 1 )

[node name="VideoPlayer" type="VideoPlayer" parent="."]
anchor_right = 1.0
anchor_bottom = 1.0
volume_db = -80.0

[node name="TextureRect" type="TextureRect" parent="."]
anchor_right = 1.0
anchor_bottom = 1.0
expand = true
stretch_mode = 6

[node name="ColorRect" type="ColorRect" parent="."]
anchor_right = 1.0
anchor_bottom = 1.0
color = Color( 0, 0, 0, 0.67451 )

[node name="About" type="ColorRect" parent="."]
anchor_left = 0.646484
anchor_top = 0.208333
anchor_right = 1.0
anchor_bottom = 0.816667
color = Color( 0.101961, 0.101961, 0.101961, 0.784314 )
__meta__ = {
"_edit_use_anchors_": true
}

[node name="Label" type="Label" parent="About"]
anchor_right = 1.0
anchor_bottom = 0.249315
text = "About"
align = 1
autowrap = true
__meta__ = {
"_edit_use_anchors_": true
}

[node name="Label2" type="Label" parent="About"]
anchor_left = 0.05
anchor_top = 0.249315
anchor_right = 0.95
anchor_bottom = 1.0
custom_fonts/font = SubResource( 1 )
autowrap = true
__meta__ = {
"_edit_use_anchors_": true
}

[node name="Label" type="Label" parent="."]
anchor_right = 1.0
margin_bottom = 14.0
align = 1

[node name="ColorRect" type="ColorRect" parent="Label"]
show_behind_parent = true
anchor_right = 1.0
anchor_bottom = 1.2
color = Color( 0.101961, 0.101961, 0.101961, 0.784314 )
__meta__ = {
"_edit_use_anchors_": true
}

[node name="BannerRect" type="TextureRect" parent="."]
anchor_right = 1.0
anchor_bottom = 0.208333
expand = true
stretch_mode = 6
__meta__ = {
"_edit_use_anchors_": true
}

[node name="Label2" type="Label" parent="."]
anchor_top = 1.0
anchor_right = 1.0
anchor_bottom = 1.0
margin_top = -78.0
text = "Press any button to play"
align = 1

[node name="ColorRect" type="ColorRect" parent="Label2"]
show_behind_parent = true
anchor_right = 1.0
anchor_bottom = 1.0
color = Color( 0.101961, 0.101961, 0.101961, 0.784314 )

[connection signal="finished" from="VideoPlayer" to="." method="_on_VideoPlayer_finished"]
